{{- if eq (printf "%s" .Values.minecraftServer.eula) "FALSE" }}
##############################################################################
####   ERROR: You did not agree to the EULA in your 'helm install' call.  ####
##############################################################################

This deployment will be incomplete until you read the Minecraft EULA linked
in the README.md, then:

    helm upgrade {{ .Release.Name }} \
        --set minecraftServer.eula=true itzg/minecraft
{{- else -}}

Get the IP address of your Minecraft server by running these commands in the
same shell:

{{- if contains "NodePort" .Values.minecraftServer.serviceType }}
  export NODE_PORT=$(kubectl get --namespace {{ .Release.Namespace }} \
    -o jsonpath="{.spec.ports[0].nodePort}" services {{ template "minecraft.fullname" . }})
  export NODE_IP=$(kubectl get nodes --namespace {{ .Release.Namespace }} \
    -o jsonpath="{.items[0].status.addresses[0].address}")
  echo "You'll need to expose this node through your security groups/firewall"
  echo "for it to be world-accessible."
  echo $NODE_IP:$NODE_PORT

{{- else if contains "LoadBalancer" .Values.minecraftServer.serviceType }}

!! NOTE: It may take a few minutes for the LoadBalancer IP to be available. !!

You can watch for EXTERNAL-IP to populate by running:
  kubectl get svc --namespace {{ .Release.Namespace }} -w {{ template "minecraft.fullname" . }}

{{- else if contains "ClusterIP" .Values.minecraftServer.serviceType }}
  export POD_NAME=$(kubectl get pods \
    --namespace {{ .Release.Namespace }} \
    -l "component={{ template "minecraft.fullname" . }}" \
    -o jsonpath="{.items[0].metadata.name}")
  kubectl port-forward $POD_NAME 25565:25565
  echo "Point your Minecraft client at 127.0.0.1:25565"

{{- end }}

{{- if .Values.persistence.dataDir.enabled }}
{{- else }}

############################################################################
###   WARNING: Persistence is disabled!!! You will lose your game state  ###
###                when the Minecraft pod is terminated.                 ###
###      See values.yaml's persistence.dataDir.enabled directive.        ###
############################################################################
{{- end }}
{{- end }}
